<?xml version="1.0" encoding="UTF-8"?>
<svg xmlns="http://www.w3.org/2000/svg" version="1.1" viewBox="0 0 64 80">
  <g>
    <path d="M51.1,58h-30c-.6,0-1,.4-1,1s.4,1,1,1h30c.6,0,1-.4,1-1s-.4-1-1-1Z"/>
    <rect x="12.1" y="56" width="6" height="6" rx="1" ry="1"/>
    <rect x="12.1" y="66" width="6" height="6" rx="1" ry="1"/>
    <path d="M52.1,69c0-.6-.4-1-1-1h-30c-.6,0-1,.4-1,1s.4,1,1,1h30c.6,0,1-.4,1-1Z"/>
    <g id="Ebene_2">
      <path fill="none" d="M32.5,31.9l7.5,5-2.5-8.8,6.3-5.4-7.5-1-3.8-7.5-3.8,7.5-7.5,1,6.3,5.4-2.5,8.8s7.5-5,7.5-5Z"/>
      <path d="M46.5,49.9V12.5c0-2.3-1.9-4.2-4.2-4.2h-21.1c-2.3,0-4.2,1.9-4.2,4.2v37.4l14.8-9.6,14.8,9.6ZM23.3,21l5.6-.8,2.9-5.6,2.9,5.6,5.6.8-4.6,4,1.9,6.5-5.6-3.8-5.6,3.8,1.9-6.5-4.6-4h-.4Z"/>
    </g>
  </g>
</svg>